%YAML 1.1
%TAG !u! tag:unity3d.com,2011:
--- !u!21 &2100000
Material:
  serializedVersion: 6
  m_ObjectHideFlags: 0
  m_CorrespondingSourceObject: {fileID: 0}
  m_PrefabInstance: {fileID: 0}
  m_PrefabAsset: {fileID: 0}
  m_Name: CandyCane1
  m_Shader: {fileID: -6465566751694194690, guid: 9421ae253c2904c4696f0f3ee9f32c96,
    type: 3}
  m_ShaderKeywords: 
  m_LightmapFlags: 4
  m_EnableInstancingVariants: 0
  m_DoubleSidedGI: 0
  m_CustomRenderQueue: -1
  stringTagMap: {}
  disabledShaderPasses: []
  m_SavedProperties:
    serializedVersion: 3
    m_TexEnvs:
    - Texture2D_61fba0ed9085450cbafb9a8103504048:
        m_Texture: {fileID: 2800000, guid: 14148d32fc43024419a3981124711d07, type: 3}
        m_Scale: {x: 1, y: 1}
        m_Offset: {x: 0, y: 0}
    - unity_Lightmaps:
        m_Texture: {fileID: 0}
        m_Scale: {x: 1, y: 1}
        m_Offset: {x: 0, y: 0}
    - unity_LightmapsInd:
        m_Texture: {fileID: 0}
        m_Scale: {x: 1, y: 1}
        m_Offset: {x: 0, y: 0}
    - unity_ShadowMasks:
        m_Texture: {fileID: 0}
        m_Scale: {x: 1, y: 1}
        m_Offset: {x: 0, y: 0}
    m_Floats:
    - Vector1_1: 0.03
    - Vector1_2: 0.01
    - Vector1_268c2916cecd465f81e0514b3c6e1a75: 0.01
    - Vector1_3: 0.2
    - Vector1_396f10ab661f4d03a44e0ad60c319248: 0.005
    - Vector1_41b5e8a4f01743ab9f41cfc804596110: 1
    - Vector1_448cd2255eae478ba2a37df6ef12df97: 11.9
    - Vector1_5702df521c4e4c11a06d0ec3daa4512b: 0.23
    - Vector1_8958bbf558014d17a46826d88ac7b863: 0.33
    - Vector1_937daf0bdb32472f9edbb8b201392d58: 0.94
    - Vector1_e3171d11f268485e81bdf94cac3de80b: 0
    m_Colors:
    - Color_1: {r: 1, g: 1, b: 1, a: 1}
    - Color_1c46edf7d88940fe8d588a56561346d5: {r: 1, g: 0, b: 0, a: 1}
    - Color_2: {r: 0.20780411, g: 0.4811321, b: 0, a: 1}
    - Color_30c3ca91f1104efb9f3275eb307aeb2f: {r: 1, g: 0.8401979, b: 0, a: 1}
    - Color_36e335185d2749d1a2215ec9a0f3d37f: {r: 1, g: 0, b: 0, a: 1}
    - Color_92a60467104c4743a76c5b7fe4c0ef1a: {r: 1, g: 1, b: 1, a: 0}
    - Vector2_d01dd373b7fb44eda2fd94d355e708e6: {r: 1, g: 1, b: 0, a: 0}
    - Vector2_f32e505b1dbe49af940824e87c78f476: {r: 10, g: 10, b: 0, a: 0}
    - Vector4_1: {r: 0.2, g: -0.08, b: 0, a: 0.03}
    - Vector4_2: {r: 38.42, g: 1000, b: 39.7, a: 1000}
    - Vector4_301ed41473084018b97d27a95e72b77c: {r: 0.13, g: 1.35, b: 1.58, a: 4.97}
  m_BuildTextureStacks: []
